<?xml version="1.0" encoding="UTF-8"?>
<svg xmlns="http://www.w3.org/2000/svg" xmlns:xlink="http://www.w3.org/1999/xlink" width="1920" height="120"
     viewBox="0 0 1920 120">
    <g data-name="Canvas" fill="none">
        <g data-name="Frame 2.10" clip-path="url(#clip0)">
            <rect width="1920" height="120" fill="white" transform="translate(1920 120) scale(-1)"></rect>
            <g data-name="Vector 2.1">
                <path d="M 849.65 69.3425C 1142.71 47.491 1454.3 -23.5995 1920 27.3876L 1920 0L 0 0L 0 73.6041C 342.749 104.055 497.615 95.5915 849.65 69.3425Z"
                      transform="translate(1920 120) scale(-1)" fill="#FCD5F4"></path>
            </g>
        </g>
    </g>
    <defs>
        <clipPath id="clip0">
            <rect width="1920" height="120" fill="white" transform="translate(1920 120) scale(-1)"></rect>
        </clipPath>
    </defs>
</svg>