{
  "connection": "default",
  "collectionName": "products",
  "info": {
    "name": "products",
    "description": ""
  },
  "options": {
    "timestamps": true
  },
  "attributes": {
    "name": {
      "type": "string"
    },
    "image": {
      "collection": "file",
      "via": "related",
      "plugin": "upload"
    },
    "price": {
      "type": "decimal"
    },
    "weight": {
      "type": "string"
    }
  }
}